Exploratory Data Visualizations
…
Average total number of crime incidences that occur in different time periods of the day

## # A tibble: 288 x 3
## # Groups:   Month [?]
##    Month  hour  freq
##    <ord> <int> <int>
##  1   Jan     0   387
##  2   Jan     1   177
##  3   Jan     2   133
##  4   Jan     3    80
##  5   Jan     4    63
##  6   Jan     5    40
##  7   Jan     6    64
##  8   Jan     7    75
##  9   Jan     8   127
## 10   Jan     9   105
## # ... with 278 more rows
…
